{
  "type": "service_account",
  "project_id": "apsv-cris-2020-21-295910",
  "private_key_id": "2110da377ce1bebdae76f4db0670d076072608a7",
  "private_key": "-----BEGIN PRIVATE KEY-----\nMIIEvQIBADANBgkqhkiG9w0BAQEFAASCBKcwggSjAgEAAoIBAQCeJKFz515gd2qZ\n9xq6uiPAlzwtA1Kpa5V2H8nJr01OLLg+BRMm8NtOPaUsB41IsOBfTPtxD2JyiZ3F\nT7lV2kIYsDsF1iAkjaZVsy3VI/GeoPCCjkji+nd8yh8emreEd7UVG3uxieob3U8v\nvhADBRWGP7/Ayu2VVpqGcM5NfdpBxBYJi5af9/mMhKBmIVrTI6eWTUr5N54JOdDH\nQs8dWU47/LypXzsy5Vbi4wSanbTsXbBbT1ogbtfnfHjKZV3NQwGOLU6NYRGJR018\nVexntFClnecn7aTcS1t0N8i0sz/3eMOhtLITBJgXqvc6Yx2ZYAloMzlbBplTn6p2\nZ443azwHAgMBAAECggEADC70RVKo4bOxgcUYyRP4FylPmIQuBSFltWEDkccwpHor\ng5OugwyBSMjVBcxbJSODVbQ/ltlBk2NoxT+8HpIfD3ncQjnZ5hcHnoicWlRXlAoA\nHX7KvLnhJLsJpLj0tH7oc4TXhbkDUTw+koYJA8KLgvk8U6UOore2Ve8w5aVxgCl1\nJ2Sim8Y3UoFg59DuFov7KLE55WGMtdg0axIdm2XBj/DrFgZE1OpKE2y81ypZD/90\nsE8LdZLYOwvCKl1tTeC7E2lUCPrwNq8Z7JF7K0EzKdDHgKA1O7TM6bb0pKNohiPQ\nEBLcO7oTPRfIHB4xisDdSIrmpSc4NOaL6FchjTIkeQKBgQDQiDQjTlE5Po3LlAam\nDyvJf5UJ7Op+HKIddw461sEffOE+Ps/W1/SvWbffVw7DfpTDj7K5hUDLi/8e4w6i\nfGzqeSc6DVqgUNQ2vvBmFeM73R5RAtogVCSrN5gYC9fDsF8eYcrqemE/l2WvuplV\neOnwcBdZk51zK+mjsqvJ2DGFPQKBgQDCJBv5w0ky9VmuerNTzAbKBuF/IOoyxAjO\nRfyrhcCLWIK5Vg7d7pTU4P7rQ7NwEVOqIfkFK3csDWhMdgm6/v/sLhnu3N0o/NuB\no4R3hxZFDUE0n0kRPMD/TrtBIiL39yzNDq8zt1k4MdT2LS1uO54ZtYa/LJH/XHRt\nI9Bbp0pCkwKBgQCgT3U1hymuBkbfsEaENrmEyE39OWLz3HNMj5Ai76G74TcPsR36\nnj5+50wRqE2zQIaA6OGO+b/cOx2/0vIXO+xHPShI2qdHA5yBEbyh3kW4ab66rKSf\nodAmyDBmnAQdbmNRagCizb4hMvR7acojCTdfHez1ciPivGl67Qpfu5ImSQKBgHVB\nFdxtxCIQ6U9mMDTmPxt5uGvt10U9/QuIXajCqZ3/oUSK44PK+vzvv0ccpp2C+YMB\n7cLfk6R5nIrBp/LW3H8rAOKxZqnAvlq4BeOjJSIjdURxB9JvXSlVxeb61R/qm5Zl\nzg9wJ2S3RCZC9vNi8oQYjP+dzbfrgS4BuXABw+odAoGAGYvCxI3U8TkvF+BxKpN9\nOw2SZ8hLMRtnn8uvIIhCawi9qh63TgkZQU65QCslSE/f0ZAiGhuZwnyhh+SLu+fY\naB33oZEBCUt1VD5vDoeEbNe0VhTeYHY3HfztJ+uzS3Y014oOKUSi1biFtmVKA0rA\nZ7Na8XxORjMefrVnsSEsWV8=\n-----END PRIVATE KEY-----\n",
  "client_email": "apsv-cris-quique@apsv-cris-2020-21-295910.iam.gserviceaccount.com",
  "client_id": "115336067109850894506",
  "auth_uri": "https://accounts.google.com/o/oauth2/auth",
  "token_uri": "https://oauth2.googleapis.com/token",
  "auth_provider_x509_cert_url": "https://www.googleapis.com/oauth2/v1/certs",
  "client_x509_cert_url": "https://www.googleapis.com/robot/v1/metadata/x509/apsv-cris-quique%40apsv-cris-2020-21-295910.iam.gserviceaccount.com"
}
